8	 5	 2	 2	 2	 5	 2	 2	 3	1	 2	1	 
1	 8	 8	 5	1	 4	 4	 3	 2	 2	1	2	 
2	 4	1	 3	 3	1	 3	1	 4	 3	 3	3	 
7	 2	 6	 4	 6	 3	1	 4	1	4	4		 
6	 7	 7	 7	 7	 6	 5	 5	5		 
5	 9	 3	8	 4	 2	6	6		 
9	 6	 4	 6	 5	7		 
10	 3	 5	1	8		 
4	1	9		 
3	10		 
11	