4	 4	1	 2	1	 4	 3	 4	1	1	1	1	 
10	 3	 6	 4	 2	7	 2	 5	5	 4	 2	2	 
2	1	 8	8	 7	 5	1	1	 4	 2	 3	3	 
5	 7	 3	 3	 4	1	 5	 3	 3	 3	4		 
1	 6	 2	1	 3	 2	 4	 2	 2	5		 
7	 5	 5	 6	 6	 6	 6	6		 
9	 8	 7	 5	 5	 3	7		 
3	 2	 4	 7	8		 
8	 9	9		 
6	10		 
11	